A Rogue Historian - Great Circles with R
…
In our example, we want to turn the “source” and “destination” variables or columns into values that identify whether a place is a source or destination. Here, I choose to name the key “type” and the value “place”, which aligns with the nomenclature used in the locations data. To make the function work properly, we need to choose the right columns for gather() to work upon. In this case, there are two possibilities. We can either tell gather() to use the “source” and “destination” columns or to leave “id” and “n” alone with a - before these column names. Here, I do the former.12

# Transform routes to long format
routes_long <- routes_id %>% 
  gather(key = "type", value = "place", source, destination)

# Print routes_long
routes_long

# A tibble: 30 × 4
      id     n type   place    
   <int> <int> <chr>  <chr>    
 1     1     1 source Amsterdam
 2     2     1 source Antwerp  
 3     3     1 source Dordrecht
 4     4     1 source Emden    
 5     5     1 source Haarlem  
 6     6     1 source Haarlem  
 7     7     1 source Hamburg  
 8     8     1 source Het Vlie 
 9     9     1 source Lisse    
10    10     2 source Antwerp  
# … with 20 more rows
…
# Convert coordinate data to sf object
routes_long_sf <- st_as_sf(routes_long_geo,
                           coords = c("lon", "lat"),
                           crs = 4326)

# Print routes_long_sf
routes_long_sf

Simple feature collection with 30 features and 4 fields
Geometry type: POINT
Dimension:     XY
Bounding box:  xmin: 3.610998 ymin: 45.44085 xmax: 12.31552 ymax: 53.55108
Geodetic CRS:  WGS 84
# A tibble: 30 × 5
      id     n type   place                geometry
 * <int> <int> <chr>  <chr>             <POINT [°]>
 1     1     1 source Amsterdam (4.895168 52.37022)
 2     2     1 source Antwerp   (4.402464 51.21945)
 3     3     1 source Dordrecht  (4.690093 51.8133)
 4     4     1 source Emden       (7.20601 53.3594)
 5     5     1 source Haarlem   (4.646219 52.38739)
 6     6     1 source Haarlem   (4.646219 52.38739)
 7     7     1 source Hamburg   (9.993682 53.55108)
 8     8     1 source Het Vlie      (5.183333 53.3)
 9     9     1 source Lisse     (4.557483 52.25793)
10    10     2 source Antwerp   (4.402464 51.21945)
# … with 20 more rows
…
