Geocoding with R – A Rogue Historian
…
This post will merely scratch the surface of the mapping capabilities of R and will not enter into the domain of the more complex specific geographic packages available for R.4 Instead, it will build on the dplyr and ggplot skills discussed in my brief introduction to R. The example of geocoding and mapping with R will also provide another opportunity to show the advantages of coding. In particular, geocoding is a good example of how code can simplify the workflow for entering data. Instead of dealing with separate spreadsheets to store information about the letters and geographic information, coding makes it possible to create the geographic information directly from the letters data. The code to find the longitude and latitude of locations can be saved as a R script and rerun if new data is added to ensure that the information is always kept up to date.

Preparing the data with dplyr

In this example, I will use the same database of letters sent to Daniel van der Meulen in 1585 as I did in the previous post. You can find the data and the R script that goes along with this tutorial on GitHub. Before getting into the database of letters and figuring out how to geocode the locations found in the data, it is necessary to set up the environment in R by loading the libraries that we will be using. Here, I load both the tidyverse library to import and manipulate the data and the ggmap library to do the actual geocoding and mapping.

library(tidyverse)
library(ggmap)

As in the previous post, the data is loaded through the read_csv() function from the readr package. It is best to keep the names of objects consistent across scripts. Therefore, I name the object letters with the assignment operator. Printing out the contents reveals the that letters is a tibble with 114 letters and four columns.

letters <- read_csv("data/correspondence-data-1585.csv")
letters
#> # A tibble: 114 x 4
#>                     writer  source destination       date
#>                      <chr>   <chr>       <chr>     <date>
#>  1 Meulen, Andries van der Antwerp       Delft 1585-01-03
#>  2 Meulen, Andries van der Antwerp     Haarlem 1585-01-09
#>  3 Meulen, Andries van der Antwerp     Haarlem 1585-01-11
#>  4 Meulen, Andries van der Antwerp       Delft 1585-01-12
#>  5 Meulen, Andries van der Antwerp     Haarlem 1585-01-12
#>  6 Meulen, Andries van der Antwerp       Delft 1585-01-17
#>  7 Meulen, Andries van der Antwerp       Delft 1585-01-22
#>  8 Meulen, Andries van der Antwerp       Delft 1585-01-23
#>  9    Della Faille, Marten Antwerp     Haarlem 1585-01-24
#> 10 Meulen, Andries van der Antwerp       Delft 1585-01-28
#> # ... with 104 more rows
…
