…
```r
# Transactions from the Dafforne's example journal
dafforne_transactions
#> # A tibble: 177 x 8
#>       id credit debit date       lsd    journal ledger description        
#>    <dbl>  <int> <int> <date>     <S3: >   <int> <chr>  <chr>              
#>  1     1      2     1 1633-01-01 1000,…       1 1/1    Various coins of g…
#>  2     2      2     3 1633-01-01 477, …       1 1/1    60 Leeds dozens at…
#>  3     3      2     4 1633-01-01 55, 0…       1 2/1    5 barrels that rem…
#>  4     4      2     5 1633-01-01 240, …       1 2/1    For 800 French cro…
#>  5     5      2     6 1633-01-01 229, …       1 2/1    2290 guilders rema…
#>  6     6      2     8 1633-01-01 3, 17…       1 3/1    Expenses for the r…
#>  7     7      7     2 1633-01-01 150, …       1 1/2    Ready money from J…
#>  8     8      9    11 1633-01-04 360, …       1 4/3    100 Leeds dozens s…
#>  9     9      1     9 1633-01-04 144, …       2 3/1    For 2/5 of the 100…
#> 10    10      5    10 1633-01-04 120, …       2 3/2    400 French crowns …
#> # ... with 167 more rows
```

The [Analysis of Richard Dafforne’s Journal and Ledger vignette](https://jessesadler.github.io/debkeepr/articles/ledger.html) provides a fuller breakdown of the data, but here I would like to show how to get a summary of the 46 accounts in the books and create a plot using [ggplot2](https://ggplot2.tidyverse.org). One side effect of the use of a list column to represent pounds, shillings, and pence values is that it cannot be used for the purposes of plotting. However, this issue is overcome by the robust support for [decimalization](https://jessesadler.github.io/debkeepr/reference/index.html#section-decimalization) in `debkeepr`. Pounds, shillings, and pence values can be decimalized to any of the three units and returned to their original form when desired. For the purposes of plotting, the most useful workflow is to transform the `lsd` list column to decimalized pounds.

`debkeepr` has a [set of functions](https://jessesadler.github.io/debkeepr/reference/index.html#section-transaction-data-frames) meant to deal with data frames that mimic the form of a journal used for double-entry bookkeeping such as `dafforne_transactions`. The 177 transactions and 46 accounts in `dafforne_transactions` are more than enough to lose track of which accounts were most significant to the bookkeeper’s trade. Here, I will use `deb_account_summary()` to calculate the total credit or amount each account sent, total debit or amount each account received, and the current value of the account at the closing of the books. While `deb_account_summary()` gives a nice overview of the entire set of account books, it is also possible to focus on a single account with `deb_account()`.

```r
# Summary of all accounts in Dafforne's example journal
deb_account_summary(df = dafforne_transactions)
#> # A tibble: 46 x 4
#>    account_id credit       debit        current     
#>         <int> <S3: lsd>    <S3: lsd>    <S3: lsd>   
#>  1          1 1956, 10, 11 2903, 13, 0  -947, -2, -1
#>  2          2 2006, 3, 9   150, 0, 0    1856, 3, 9  
#>  3          3 570, 0, 0    570, 0, 0    0, 0, 0     
#>  4          4 75, 0, 8     75, 0, 8     0, 0, 0     
#>  5          5 813, 3, 0    813, 3, 0    0, 0, 0     
#>  6          6 568, 1, 11   869, 2, 7    -301, 0, -8 
#>  7          7 2958, 18, 10 2958, 18, 10 0, 0, 0     
#>  8          8 1580, 10, 0  1580, 10, 0  0, 0, 0     
#>  9          9 1744, 1, 4   1744, 1, 4   0, 0, 0     
#> 10         10 606, 2, 6    606, 2, 6    0, 0, 0     
#> # ... with 36 more rows
…
To plot the summary of the accounts in the journal and ledger the `lsd` list columns have to be converted to decimalized pounds, which is done with `deb_lsd_l()` and `dplyr::mutate_if()`. From this information, we can create a line range plot in which the upper limit is represented by the total credit, the lower limit by the total debit, and the current value by a point. Blue points show accounts that have been balanced by the end of the books and are therefore closed, while black points represent the values for accounts that remain open.

```r
library(dplyr)
library(ggplot2)

# Prepare account summary for plotting
(dafforne_summary <- dafforne_transactions %>% 
  deb_account_summary() %>% 
  mutate_if(deb_is_lsd, deb_lsd_l) %>% 
  mutate(debit = -debit))
#> # A tibble: 46 x 4
#>    account_id credit   debit current
#>         <int>  <dbl>   <dbl>   <dbl>
#>  1          1 1957.  -2904.    -947.
#>  2          2 2006.   -150     1856.
#>  3          3  570    -570        0 
#>  4          4   75.0   -75.0      0 
#>  5          5  813.   -813.       0 
#>  6          6  568.   -869.    -301.
#>  7          7 2959.  -2959.       0 
#>  8          8 1580.  -1580.       0 
#>  9          9 1744.  -1744.       0 
#> 10         10  606.   -606.       0 
#> # ... with 36 more rows
…
