A Rogue Historian - debkeepr: An R package for the analysis of non-decimal currencies
…
debkeepr includes two data frames of example data. dafforne_transactions is a transactions data frame that has columns for transaction id, credit account, debit account, date of the transaction, and the value of the transaction as a deb_lsd column with bases 20s. and 12d., along with some addition information. This is paired with a data frame containing information about the 46 accounts in Dafforne’s practice ledger. See ?dafforne_transactions and ?dafforne_accounts for more details. For a fuller discussion of using these data frames, see the Analysis of Richard Dafforne’s Journal and Ledger vignette.

# Load tidyverse packages
library(dplyr)
library(ggplot2)

# Transactions data frame
dafforne_transactions
#> # A tibble: 177 × 8
#>       id credit debit date                  lsd journal ledger description      
#>    <dbl>  <dbl> <dbl> <date>     <lsd[20s:12d]>   <dbl> <chr>  <chr>            
#>  1     1      2     1 1633-01-01    1000:15s:7d       1 1/1    Various coins of…
#>  2     2      2     3 1633-01-01     477:10s:0d       1 1/1    60 Leeds dozens …
#>  3     3      2     4 1633-01-01       55:0s:6d       1 2/1    5 barrels that r…
#>  4     4      2     5 1633-01-01      240:0s:0d       1 2/1    For 800 French c…
#>  5     5      2     6 1633-01-01      229:0s:0d       1 2/1    2290 guilders re…
#>  6     6      2     8 1633-01-01       3:17s:8d       1 3/1    Expenses for the…
#>  7     7      7     2 1633-01-01      150:0s:0d       1 1/2    Ready money from…
#>  8     8      9    11 1633-01-04      360:0s:0d       1 4/3    100 Leeds dozens…
#>  9     9      1     9 1633-01-04      144:0s:0d       2 3/1    For 2/5 of the 1…
#> 10    10      5    10 1633-01-04      120:0s:0d       2 3/2    400 French crown…
#> # … with 167 more rows

# Accounts data frame
dafforne_accounts
#> # A tibble: 46 × 5
#>       id account                                    ledger investor      descr…¹
#>    <int> <chr>                                       <int> <chr>         <chr>  
#>  1     1 Cash                                            1 Ego           Accoun…
#>  2     2 Stock                                           1 Ego           Accoun…
#>  3     3 Wares                                           1 Ego           Accoun…
#>  4     4 Kettles                                         2 Ego           Accoun…
#>  5     5 Jean du Boys - account current                  2 Jean du Boys  Factor…
#>  6     6 Jacob Symonson - account by him in company      2 Jacob Symons… Aggreg…
#>  7     7 Jacob Symonson - account current                2 Jacob Symons… Curren…
#>  8     8 Jacob Symonson - Cochineal                      3 Jacob Symons… Sale o…
#>  9     9 George Pinchback                                3 George Pinch… Accoun…
#> 10    10 Jacob Symonson - ready money                    3 Jacob Symons… Accoun…
#> # … with 36 more rows, and abbreviated variable name ¹​description

debkeepr provides a set of functions that work with data frames with the same structure as dafforne_transactions. deb_account_summary() is useful for obtaining an overview of the account book at its closing, providing a summary of the total credits, debits, and current value of each account.

dafforne_transactions |> 
  deb_account_summary(credit = credit, debit = debit, lsd = lsd)
#> # A tibble: 46 × 4
#>    account_id         credit          debit        current
#>         <dbl> <lsd[20s:12d]> <lsd[20s:12d]> <lsd[20s:12d]>
#>  1          1   1956:10s:11d    2903:13s:0d   -947:-2s:-1d
#>  2          2     2006:3s:9d      150:0s:0d     1856:3s:9d
#>  3          3      570:0s:0d      570:0s:0d        0:0s:0d
#>  4          4       75:0s:8d       75:0s:8d        0:0s:0d
#>  5          5      813:3s:0d      813:3s:0d        0:0s:0d
#>  6          6     568:1s:11d      869:2s:7d    -301:0s:-8d
#>  7          7   2958:18s:10d   2958:18s:10d        0:0s:0d
#>  8          8    1580:10s:0d    1580:10s:0d        0:0s:0d
#>  9          9     1744:1s:4d     1744:1s:4d        0:0s:0d
#> 10         10      606:2s:6d      606:2s:6d        0:0s:0d
#> # … with 36 more rows
…
